{
    "KPlugin": {
        "Authors": [
            {
                "Email": "holger.k@elberer.de",
                "Name": "Holger Kaelberer",
                "Name[ar]": "هولجر كيلبرر",
                "Name[az]": "Holger Kaelberer",
                "Name[bg]": "Holger Kaelberer",
                "Name[ca@valencia]": "Holger Kaelberer",
                "Name[ca]": "Holger Kaelberer",
                "Name[cs]": "Holger Kaelberer",
                "Name[da]": "Holger Kaelberer",
                "Name[de]": "Holger Kaelberer",
                "Name[el]": "Holger Kaelberer",
                "Name[en_GB]": "Holger Kaelberer",
                "Name[eo]": "Holger Kaelberer",
                "Name[es]": "Holger Kaelberer",
                "Name[et]": "Holger Kaelberer",
                "Name[eu]": "Holger Kaelberer",
                "Name[fi]": "Holger Kaelberer",
                "Name[fr]": "Holger Kaelberer",
                "Name[gl]": "Holger Kaelberer",
                "Name[he]": "הולגר קאלברר",
                "Name[hu]": "Holger Kaelberer",
                "Name[ia]": "Holger Kaelberer",
                "Name[id]": "Holger Kaelberer",
                "Name[ie]": "Holger Kaelberer",
                "Name[is]": "Holger Kaelberer",
                "Name[it]": "Holger Kaelberer",
                "Name[ja]": "Holger Kaelberer",
                "Name[ka]": "Holger Kaelberer",
                "Name[ko]": "Holger Kaelberer",
                "Name[lt]": "Holger Kaelberer",
                "Name[lv]": "Holger Kaelberer",
                "Name[nl]": "Holger Kaelberer",
                "Name[nn]": "Holger Kaelberer",
                "Name[pl]": "Holger Kaelberer",
                "Name[pt]": "Holger Kaelberer",
                "Name[pt_BR]": "Holger Kaelberer",
                "Name[ro]": "Holger Kaelberer",
                "Name[ru]": "Holger Kaelberer",
                "Name[sk]": "Holger Kaelberer",
                "Name[sl]": "Holger Kaelberer",
                "Name[sr@ijekavian]": "Холгер Келберер",
                "Name[sr@ijekavianlatin]": "Holger Kelberer",
                "Name[sr@latin]": "Holger Kelberer",
                "Name[sr]": "Холгер Келберер",
                "Name[sv]": "Holger Kaelberer",
                "Name[tr]": "Holger Kaelberer",
                "Name[uk]": "Holger Kaelberer",
                "Name[x-test]": "xxHolger Kaelbererxx",
                "Name[zh_CN]": "Holger Kaelberer",
                "Name[zh_TW]": "Holger Kaelberer"
            }
        ],
        "Description": "Use your keyboard to send key-events to your paired device",
        "Description[ar]": "استعمل لوحة مفاتيحك لإرسال أحداث مفاتيح إلى جهازك المقترن",
        "Description[az]": "Klaviaturadan istifadə edərək düymə-əməllərini qoşulmuş cihaza göndərmək",
        "Description[bg]": "Използвайте клавиатурата си, за да изпращате събития с клавиши към сдвоеното устройство",
        "Description[ca@valencia]": "Utilitzeu el vostre teclat per a enviar esdeveniments de tecla al dispositiu aparellat",
        "Description[ca]": "Empreu el vostre teclat per a enviar esdeveniments de tecla al dispositiu aparellat",
        "Description[cs]": "Používejte svoji klávesnici pro odesílání událostí kláves na spárované zařízení",
        "Description[da]": "Brug dit tastatur til at sende tastehændelser til din parrede enhed",
        "Description[de]": "Benutzen Sie Ihre Tastatur, um Tastatureingaben an das gekoppelte Gerät zu senden",
        "Description[el]": "Στέλνεις ό,τι πληκτρολογείς στη συσκευή ζεύγους",
        "Description[en_GB]": "Use your keyboard to send key-events to your paired device",
        "Description[eo]": "Uzi vian klavaron por sendi ŝlosilajn eventojn al via parigita aparato",
        "Description[es]": "Use su teclado para enviar eventos de teclado a su dispositivo vinculado",
        "Description[et]": "Oma klaviatuuri kasutamine klahvisündmuste edastamiseks paardunud seadmesse",
        "Description[eu]": "Erabili zure teklatua tekla-gertaerak zure parekatutako gailura bidaltzeko",
        "Description[fi]": "Lähetä näppäinpainallukset näppäimistöltä paritetulle laitteelle",
        "Description[fr]": "Utiliser votre clavier pour envoyer des évènements de touche au périphérique associé",
        "Description[gl]": "Usar o teclado para enviar eventos de tecla ao dispositivo emparellado.",
        "Description[he]": "שימוש במקלדת שלך לשליחת אירועי מקשים למכשיר המצומד שלך",
        "Description[hu]": "A billentyűzet használata billentyűesemények küldésére a párosított eszköznek",
        "Description[ia]": "Usa tu claviero pro inviar eventos-clave a tu dispositivo associate",
        "Description[id]": "Gunakan keyboard Anda untuk mengirim peristiwa ke peranti Anda yang tersanding",
        "Description[is]": "Nota lyklaborðið þitt til að senda innsláttarmerki í parað tæki",
        "Description[it]": "Utilizza la tua tastiera per inviare eventi di pressione dei tasti al dispositivo associato",
        "Description[ja]": "キーボードを使用してキーイベントをペアリング済みのデバイスに送信",
        "Description[ka]": "გამოიყენეთ კლავიატურა თქვენს დაწყვილებულ მოწყობილობაზე ღილაკების დაჭერისთვის",
        "Description[ko]": "키보드를 사용하여 페어링된 장치에 키 이벤트 보내기",
        "Description[lt]": "Naudoti savo klaviatūrą, siekiant siųsti klavišų įvykius į suporuotą įrenginį",
        "Description[lv]": "Izmantot tastatūru, lai nosūtīt taustiņu darbības uz sapārotajām sistēmām",
        "Description[nl]": "Uw toetsenbord gebruiken om toetsgebeurtenissen naar uw gepaarde apparaat te verzenden",
        "Description[nn]": "Bruk tastaturet til å senda tastetrykk til den para eininga",
        "Description[pl]": "Wysyła naciśnięcia klawiszy tego urządzenia na inne urządzenie",
        "Description[pt]": "Usar o seu teclado para enviar eventos de teclas para o seu dispositivo emparelhado",
        "Description[pt_BR]": "Use seu teclado para enviar eventos de teclas ao dispositivo emparelhado",
        "Description[ro]": "Folosiți tastatura pentru a trimite evenimente de taste către dispozitivul asociat",
        "Description[ru]": "Использование клавиатуры для отправки нажатий клавиш на сопряжённое устройство",
        "Description[sk]": "Použitie vašej klávesnice na odosielanie stlačení klávesov do vášho spárovaného zariadenia",
        "Description[sl]": "Uporabite tipkovnico za pošiljanje ključnih dogodkov v svojo uparjeno napravo",
        "Description[sr@ijekavian]": "Користите тастатуру за куцање на упареном уређају",
        "Description[sr@ijekavianlatin]": "Koristite tastaturu za kucanje na uparenom uređaju",
        "Description[sr@latin]": "Koristite tastaturu za kucanje na uparenom uređaju",
        "Description[sr]": "Користите тастатуру за куцање на упареном уређају",
        "Description[sv]": "Använd tangentbordet för att skicka tangenthändelser till den parade enheten",
        "Description[tr]": "Eşleşmiş aygıta önemli etkinlikler göndermek için klavyeyi kullan",
        "Description[uk]": "Скористайтеся вашою клавіатурою для надсилання подій натискання клавіш на пов’язаний пристрій",
        "Description[x-test]": "xxUse your keyboard to send key-events to your paired devicexx",
        "Description[zh_CN]": "使用您的键盘发送按键事件给配对的设备",
        "Description[zh_TW]": "利用您的鍵盤去傳送按鍵活動至您的配對裝置",
        "EnabledByDefault": true,
        "Icon": "edit-select",
        "License": "GPL",
        "Name": "Remote keyboard from the desktop",
        "Name[ar]": "لوحة مفاتيح بعيده من سطح المكتب",
        "Name[az]": "İş masasından uzaq klaviatura",
        "Name[bg]": "Отдалечена клавиатура от работния плот",
        "Name[ca@valencia]": "Teclat remot des de l'escriptori",
        "Name[ca]": "Teclat remot des de l'escriptori",
        "Name[cs]": "Vzdálená klávesnice pro plochu",
        "Name[da]": "Eksternt tastatur fra desktoppen",
        "Name[de]": "Tastatureingaben von der Arbeitsfläche",
        "Name[el]": "Απομακρυσμένο πληκτρολόγιο της επιφάνειας εργασίας",
        "Name[en_GB]": "Remote keyboard from the desktop",
        "Name[eo]": "Fora klavaro de la labortablo",
        "Name[es]": "Teclado remoto desde el equipo de escritorio",
        "Name[et]": "Kaugklaviatuur töölaualt",
        "Name[eu]": "Urruneko teklatua mahaigainetik",
        "Name[fi]": "Etänäppäimistö työpöydältä",
        "Name[fr]": "Clavier à distance depuis l'ordinateur",
        "Name[gl]": "Teclado remoto do escritorio",
        "Name[he]": "מקלדת מרוחקת משולחן העבודה",
        "Name[hu]": "Távoli billentyűzet az asztaláról",
        "Name[ia]": "Claviero remote ab le scriptorio",
        "Name[id]": "Keyboard jarak jauh dari desktop",
        "Name[is]": "Fjartengt lyklaborð frá vinnutölvunni",
        "Name[it]": "Tastiera remota dal desktop",
        "Name[ja]": "デスクトップからのリモートキーボード",
        "Name[ka]": "დაშორებული კლავიატურა კომპიუტერიდან",
        "Name[ko]": "데스크톱에서 제어하는 원격 키보드",
        "Name[lt]": "Nuotolinė klaviatūra iš darbalaukio",
        "Name[lv]": "Attālinātā tastatūra no darbvirsmas",
        "Name[nl]": "Toetsenbord op afstand vanaf het bureaublad",
        "Name[nn]": "Fjerntastatur frå skrivebordet",
        "Name[pa]": "ਡੈਸਕਟਾਪ ਤੋਂ ਰਿਮੋਟ ਕੀਬੋਰਡ",
        "Name[pl]": "Klawiatura z tego urządzenia",
        "Name[pt]": "Teclado remoto do ambiente de trabalho",
        "Name[pt_BR]": "Teclado remoto a partir da área de trabalho",
        "Name[ro]": "Tastatură distantă de la calculator",
        "Name[ru]": "Удалённая клавиатура с рабочего стола",
        "Name[sk]": "Vzdialená klávesnica z počítača",
        "Name[sl]": "Oddaljena tipkovnica na namizju",
        "Name[sr@ijekavian]": "Даљинска тастатура са радне површи",
        "Name[sr@ijekavianlatin]": "Daljinska tastatura sa radne površi",
        "Name[sr@latin]": "Daljinska tastatura sa radne površi",
        "Name[sr]": "Даљинска тастатура са радне површи",
        "Name[sv]": "Externt tangentbord från skrivbordet",
        "Name[tr]": "Masaüstünden uzak klavye",
        "Name[uk]": "Віддалена клавіатура з комп’ютера",
        "Name[x-test]": "xxRemote keyboard from the desktopxx",
        "Name[zh_CN]": "来自桌面的远程键盘",
        "Name[zh_TW]": "從桌面遠端控制鍵盤"
    },
    "X-KdeConnect-OutgoingPacketType": [
        "kdeconnect.mousepad.request"
    ],
    "X-KdeConnect-SupportedPacketType": [
        "kdeconnect.mousepad.echo",
        "kdeconnect.mousepad.keyboardstate"
    ]
}
