{
    "KPlugin": {
        "Authors": [
            {
                "Email": "apparle@gmail.com",
                "Name": "Apoorv Parle",
                "Name[ar]": "Apoorv Parle",
                "Name[az]": "Apoorv Parle",
                "Name[bg]": "Apoorv Parle",
                "Name[ca@valencia]": "Apoorv Parle",
                "Name[ca]": "Apoorv Parle",
                "Name[cs]": "Apoorv Parle",
                "Name[da]": "Apoorv Parle",
                "Name[de]": "Apoorv Parle",
                "Name[el]": "Apoorv Parle",
                "Name[en_GB]": "Apoorv Parle",
                "Name[eo]": "Apoorv Parle",
                "Name[es]": "Apoorv Parle",
                "Name[et]": "Apoorv Parle",
                "Name[eu]": "Apoorv Parle",
                "Name[fi]": "Apoorv Parle",
                "Name[fr]": "Apoorv Parle",
                "Name[gl]": "Apoorv Parle",
                "Name[he]": "אפורב פארלה",
                "Name[hu]": "Apoorv Parle",
                "Name[ia]": "Apoorv Parle",
                "Name[id]": "Apoorv Parle",
                "Name[ie]": "Apoorv Parle",
                "Name[is]": "Apoorv Parle",
                "Name[it]": "Apoorv Parle",
                "Name[ja]": "Apoorv Parle",
                "Name[ka]": "Apoorv Parle",
                "Name[ko]": "Apoorv Parle",
                "Name[lt]": "Apoorv Parle",
                "Name[lv]": "Apoorv Parle",
                "Name[nl]": "Apoorv Parle",
                "Name[nn]": "Apoorv Parle",
                "Name[pl]": "Apoorv Parle",
                "Name[pt]": "Apoorv Parle",
                "Name[pt_BR]": "Apoorv Parle",
                "Name[ro]": "Apoorv Parle",
                "Name[ru]": "Apoorv Parle",
                "Name[sk]": "Apoorv Parle",
                "Name[sl]": "Apoorv Parle",
                "Name[sr@ijekavian]": "Апорв Парле",
                "Name[sr@ijekavianlatin]": "Aporv Parle",
                "Name[sr@latin]": "Aporv Parle",
                "Name[sr]": "Апорв Парле",
                "Name[sv]": "Apoorv Parle",
                "Name[tr]": "Apoorv Parle",
                "Name[uk]": "Apoorv Parle",
                "Name[x-test]": "xxApoorv Parlexx",
                "Name[zh_CN]": "Apoorv Parle",
                "Name[zh_TW]": "Apoorv Parle"
            },
            {
                "Email": "davidedmundson@kde.org",
                "Name": "David Edmundson",
                "Name[ar]": "ديفيد إدموندسون",
                "Name[az]": "David Edmundson",
                "Name[bg]": "David Edmundson",
                "Name[ca@valencia]": "David Edmundson",
                "Name[ca]": "David Edmundson",
                "Name[cs]": "David Edmundson",
                "Name[da]": "David Edmundson",
                "Name[de]": "David Edmundson",
                "Name[el]": "David Edmundson",
                "Name[en_GB]": "David Edmundson",
                "Name[eo]": "David Edmundson",
                "Name[es]": "David Edmundson",
                "Name[et]": "David Edmundson",
                "Name[eu]": "David Edmundson",
                "Name[fi]": "David Edmundson",
                "Name[fr]": "David Edmundson",
                "Name[gl]": "David Edmundson",
                "Name[he]": "דיויד אדמונדסון",
                "Name[hu]": "David Edmundson",
                "Name[ia]": "David Edmundson",
                "Name[id]": "David Edmundson",
                "Name[ie]": "David Edmundson",
                "Name[is]": "David Edmundson",
                "Name[it]": "David Edmundson",
                "Name[ja]": "David Edmundson",
                "Name[ka]": "დავიდ ედმუნდსონი",
                "Name[ko]": "David Edmundson",
                "Name[lt]": "David Edmundson",
                "Name[lv]": "David Edmundson",
                "Name[nl]": "David Edmundson",
                "Name[nn]": "David Edmundson",
                "Name[pl]": "David Edmundson",
                "Name[pt]": "David Edmundson",
                "Name[pt_BR]": "David Edmundson",
                "Name[ro]": "David Edmundson",
                "Name[ru]": "David Edmundson",
                "Name[sk]": "David Edmundson",
                "Name[sl]": "David Edmundson",
                "Name[sr@ijekavian]": "Дејвид Едмундсон",
                "Name[sr@ijekavianlatin]": "Dejvid Edmundson",
                "Name[sr@latin]": "Dejvid Edmundson",
                "Name[sr]": "Дејвид Едмундсон",
                "Name[sv]": "David Edmundson",
                "Name[tr]": "David Edmundson",
                "Name[uk]": "David Edmundson",
                "Name[x-test]": "xxDavid Edmundsonxx",
                "Name[zh_CN]": "David Edmundson",
                "Name[zh_TW]": "David Edmundson"
            }
        ],
        "Description": "Find your lost phone by making it play an alarm sound",
        "Description[ar]": "جِد هاتفك الضّائع بتشغيل صوت المنبّه",
        "Description[az]": "İtirdiyiniz cihazınızı ona səs siqnalı göndərməklə tapın",
        "Description[bg]": "Намерете изгубения си телефон, като го накарате да възпроизведе алармен звук",
        "Description[ca@valencia]": "Troba el vostre telèfon perdut fent que reproduïsca un so d'alarma",
        "Description[ca]": "Troba el vostre telèfon perdut fent que reprodueixi un so d'alarma",
        "Description[cs]": "Najděte svůj telefon tím, že jej necháte přehrát zvuk upomínky",
        "Description[da]": "Find din forsvundne telefon ved at få den til at afspille en alarm",
        "Description[de]": "Finden Sie Ihr verlegtes Telefon, indem Sie mit ihm einen Warnton abspielen lassen",
        "Description[el]": "Βρείτε το χαμένο σας τηλέφωνο με ηχητική ειδοποίηση",
        "Description[en_GB]": "Find your lost phone by making it play an alarm sound",
        "Description[eo]": "Trovi vian perditan telefonon igante ĝin ludi alarmsonon",
        "Description[es]": "Encuentre su teléfono perdido haciéndole reproducir un sonido de alarma",
        "Description[et]": "Kaotsi läinud telefoni leidmine sellel häireheli esitamisega",
        "Description[eu]": "Aurkitu galdutako telefonoa alarma-soinu bat jo araziz",
        "Description[fi]": "Löydä hukkaamasi puhelin laittamalla se soittamaan hälytysääntä",
        "Description[fr]": "Trouver votre téléphone perdu en déclenchant une alarme",
        "Description[gl]": "Reproducir un son de alarma nun teléfono móbil perdido para atopalo.",
        "Description[he]": "אפשר לאתר את הטלפון שלך על ידי שליחת בקשה שישמיע אזעקה",
        "Description[hu]": "Elveszett telefon keresése és riasztóhang lejátszása",
        "Description[ia]": "Trova tu telephono perdite per facer lo sonar con un sono de alarma",
        "Description[id]": "Temukan telepon Anda yang hilang dengan membunyikan suara alarm",
        "Description[is]": "Finna týnda símann þinn með því að láta hann spila vekjarahljóð",
        "Description[it]": "Trova il tuo telefono smarrito facendogli suonare un allarme sonoro",
        "Description[ja]": "アラーム音を鳴らして紛失した端末を発見",
        "Description[ka]": "იპოვეთ დაკარგული ხმა, ააყმუვლეთ ის",
        "Description[ko]": "알람 소리를 울려서 잃어버린 휴대폰 찾기",
        "Description[lt]": "Rasti savo telefoną priverčiant jį atkurti signalo garsą",
        "Description[lv]": "Atrast pazaudētu tālruni, atskaņojot signālu",
        "Description[nl]": "Zoek uw verloren telefoon door het een wekkersignaal te laten spelen",
        "Description[nn]": "Finn telefonen ved å la han spela eit lydsignal",
        "Description[pl]": "Pomaga znaleźć inne urządzenie, odgrywając na nim dźwięk z tego urządzenia",
        "Description[pt]": "Descobrir o seu telefone perdido, fazendo-o tocar um som de alarme",
        "Description[pt_BR]": "Encontre seu celular fazendo-o reproduzir um som",
        "Description[ro]": "Găsiți telefonul pierdut făcându-l să sune o alarmă",
        "Description[ru]": "Поиск утерянного телефона при помощи звукового сигнала",
        "Description[sk]": "Nájdenie vášho strateného telefónu prehraním výstražného zvuku",
        "Description[sl]": "Poišči svoj izgubljeni telefon tako, da se sproži zvok alarma",
        "Description[sr@ijekavian]": "Нађите изгубљени телефон активирањем звука аларма",
        "Description[sr@ijekavianlatin]": "Nađite izgubljeni telefon aktiviranjem zvuka alarma",
        "Description[sr@latin]": "Nađite izgubljeni telefon aktiviranjem zvuka alarma",
        "Description[sr]": "Нађите изгубљени телефон активирањем звука аларма",
        "Description[sv]": "Hitta din förlorade telefon genom att få den att spela ett alarmljud",
        "Description[tr]": "Bir alarm sesi çalarak kayıp telefonları bul",
        "Description[uk]": "Знайти загублений телефон, наказавши йому відтворити дзвінок",
        "Description[x-test]": "xxFind your lost phone by making it play an alarm soundxx",
        "Description[zh_CN]": "通过播放闹铃声来找到您不见的手机",
        "Description[zh_TW]": "讓您的手機發出警報聲，讓您找到您遺失的手機",
        "EnabledByDefault": true,
        "Icon": "edit-find",
        "License": "GPL",
        "Name": "Ring my phone",
        "Name[ar]": "رنّ هاتفي",
        "Name[az]": "Telfonuma zəng göndərmək",
        "Name[bg]": "Позвъняване на моя телефон",
        "Name[ca@valencia]": "Fes sonar el meu telèfon",
        "Name[ca]": "Fes sonar el meu telèfon",
        "Name[cs]": "Prozvonit můj telefon",
        "Name[da]": "Ring min telefon op",
        "Name[de]": "Mein Telefon anklingeln",
        "Name[el]": "Κουδούνισμα του τηλεφώνου μου",
        "Name[en_GB]": "Ring my phone",
        "Name[eo]": "Sonigi mian telefonon",
        "Name[es]": "Hacer sonar mi teléfono",
        "Name[et]": "Helista minu telefonile",
        "Name[eu]": "Jo nire telefonoaren dei-doinua",
        "Name[fi]": "Soita puhelimeeni",
        "Name[fr]": "Faire sonner mon téléphone",
        "Name[gl]": "Facer soar o meu móbil",
        "Name[he]": "צלצול הטלפון שלי",
        "Name[hu]": "Telefon megcsörgetése",
        "Name[ia]": "Sona mi telephono",
        "Name[id]": "Dering ponsel saya",
        "Name[ie]": "Sonar mi telefon",
        "Name[is]": "Hringja í símann minn",
        "Name[it]": "Fai squillare il mio telefono",
        "Name[ja]": "端末を鳴らす",
        "Name[ka]": "დარეკე ჩემს ტელეფონზე",
        "Name[ko]": "내 휴대폰 울리기",
        "Name[lt]": "Skambinti į telefoną",
        "Name[lv]": "Likt telefonam zvanīt",
        "Name[nl]": "Bel mijn telefoon",
        "Name[nn]": "Ring telefonen",
        "Name[pa]": "ਮੇਰੇ ਫ਼ੋਨ ਉੱਤੇ ਰਿੰਗ ਕਰੋ",
        "Name[pl]": "Dzwonienie innym urządzeniem",
        "Name[pt]": "Tocar o meu telefone",
        "Name[pt_BR]": "Tocar meu celular",
        "Name[ro]": "Sună-mi telefonul",
        "Name[ru]": "Поиск телефона",
        "Name[sk]": "Prezvoniť môj telefón",
        "Name[sl]": "Pozvoni moj telefon",
        "Name[sr@ijekavian]": "Звони мој телефону",
        "Name[sr@ijekavianlatin]": "Zvoni moj telefonu",
        "Name[sr@latin]": "Zvoni moj telefonu",
        "Name[sr]": "Звони мој телефону",
        "Name[sv]": "Hitta min telefon",
        "Name[tr]": "Telefonu çaldır",
        "Name[uk]": "Дзвінок на вашому телефоні",
        "Name[x-test]": "xxRing my phonexx",
        "Name[zh_CN]": "让我的手机响铃",
        "Name[zh_TW]": "撥打我的電話"
    },
    "X-KdeConnect-OutgoingPacketType": [
        "kdeconnect.findmyphone.request"
    ]
}
